"id","category_id/id","factor_inv","factor","rounding","uom_type","name"
"isf_tosa_product.10units","product.product_uom_categ_unit","10.0","0.1","0.01","Bigger than the reference Unit of Measure","10 Units"
"isf_tosa_product.25units","product.product_uom_categ_unit","25.0","0.04","0.01","Bigger than the reference Unit of Measure","25 Units"
"isf_tosa_product.100units","product.product_uom_categ_unit","100.0","0.01","0.01","Bigger than the reference Unit of Measure","100 Units"
"isf_tosa_product.144units","product.product_uom_categ_unit","144.0","0.0069444444444444","0.01","Bigger than the reference Unit of Measure","144 Units"
"isf_tosa_product.250units","product.product_uom_categ_unit","250.0","0.004","0.01","Bigger than the reference Unit of Measure","250 Units"
"isf_tosa_product.500units","product.product_uom_categ_unit","500.0","0.002","0.01","Bigger than the reference Unit of Measure","500 Units"
"isf_tosa_product.set","product.product_uom_categ_unit","1.0","1.0","1.0","Reference Unit of Measure for this category","SET"
"isf_tosa_product.1ampoule","product.product_uom_categ_unit","1.0","1.0","1.0","Reference Unit of Measure for this category","1 AMPOULE"
"isf_tosa_product.1book","product.product_uom_categ_unit","1.0","1.0","1.0","Reference Unit of Measure for this category","1 BOOK"
"isf_tosa_product.1bottle","product.product_uom_categ_unit","1.0","1.0","1.0","Reference Unit of Measure for this category","1 BOTTLE"
"isf_tosa_product.1bottleof10milillitres","product.product_uom_categ_unit","1.0","1.0","1.0","Reference Unit of Measure for this category","1 BOTTLE OF 10MILILLITRES"
"isf_tosa_product.1kilogram","product.product_uom_categ_unit","1.0","1.0","1.0","Reference Unit of Measure for this category","1 KILOGRAM"
"isf_tosa_product.1kilogram(360tablets)","product.product_uom_categ_unit","360.0","0.002777777778","1.0","Reference Unit of Measure for this category","1 KILOGRAM (360 TABLETS)"
"isf_tosa_product.1kit","product.product_uom_categ_unit","1.0","1.0","1.0","Reference Unit of Measure for this category","1 KIT"
"isf_tosa_product.1litre","product.product_uom_categ_unit","1.0","1.0","1.0","Reference Unit of Measure for this category","1 LITRE"
"isf_tosa_product.1packet","product.product_uom_categ_unit","1.0","1.0","1.0","Reference Unit of Measure for this category","1 PACKET"
"isf_tosa_product.1pair","product.product_uom_categ_unit","1.0","1.0","1.0","Reference Unit of Measure for this category","1 PAIR"
"isf_tosa_product.1roll","product.product_uom_categ_unit","1.0","1.0","1.0","Reference Unit of Measure for this category","1 ROLL"
"isf_tosa_product.1set","product.product_uom_categ_unit","1.0","1.0","1.0","Reference Unit of Measure for this category","1 SET"
"isf_tosa_product.1tube","product.product_uom_categ_unit","1.0","1.0","1.0","Reference Unit of Measure for this category","1 TUBE"
"isf_tosa_product.1vial","product.product_uom_categ_unit","1.0","1.0","1.0","Reference Unit of Measure for this category","1 VIAL"
"isf_tosa_product.10ampoules","product.product_uom_categ_unit","10.0","0.1","0.01","Bigger than the reference Unit of Measure","10 AMPOULES"
"isf_tosa_product.10bottles","product.product_uom_categ_unit","10.0","0.1","0.01","Bigger than the reference Unit of Measure","10 BOTTLES"
"isf_tosa_product.10pieces","product.product_uom_categ_unit","10.0","0.1","0.01","Bigger than the reference Unit of Measure","10 PIECES"
"isf_tosa_product.10suppositories","product.product_uom_categ_unit","10.0","0.1","0.01","Bigger than the reference Unit of Measure","10 SUPPOSITORIES"
"isf_tosa_product.10tablets","product.product_uom_categ_unit","10.0","0.1","0.01","Bigger than the reference Unit of Measure","10 TABLETS"
"isf_tosa_product.10vials","product.product_uom_categ_unit","10.0","0.1","0.01","Bigger than the reference Unit of Measure","10 VIALS"
"isf_tosa_product.100capsules","product.product_uom_categ_unit","100.0","0.01","0.01","Bigger than the reference Unit of Measure","100 CAPSULES"
"isf_tosa_product.100grams","product.product_uom_categ_unit","1.0","1.0","1.0","Reference Unit of Measure for this category","100 GRAMS"
"isf_tosa_product.100millilitres","product.product_uom_categ_unit","1.0","1.0","1.0","Reference Unit of Measure for this category","100 MILLILITRES"
"isf_tosa_product.100pieces","product.product_uom_categ_unit","100.0","0.01","0.01","Bigger than the reference Unit of Measure","100 PIECES"
"isf_tosa_product.100sacchets","product.product_uom_categ_unit","100.0","0.01","0.01","Bigger than the reference Unit of Measure","100 SACCHETS"
"isf_tosa_product.100tablets","product.product_uom_categ_unit","100.0","0.01","0.01","Bigger than the reference Unit of Measure","100 TABLETS"
"isf_tosa_product.100tubes","product.product_uom_categ_unit","100.0","0.01","0.01","Bigger than the reference Unit of Measure","100 TUBES"
"isf_tosa_product.100vials","product.product_uom_categ_unit","100.0","0.01","0.01","Bigger than the reference Unit of Measure","100 VIALS"
"isf_tosa_product.1000capsules","product.product_uom_categ_unit","1000.0","0.01","0.01","Bigger than the reference Unit of Measure","1000 CAPSULES"
"isf_tosa_product.1000milillitres","product.product_uom_categ_unit","1.0","1.0","1.0","Reference Unit of Measure for this category","1000 MILILLITRES"
"isf_tosa_product.1000pieces","product.product_uom_categ_unit","1000.0","0.01","0.01","Bigger than the reference Unit of Measure","1000 PIECES"
"isf_tosa_product.1000tablets","product.product_uom_categ_unit","1000.0","0.01","0.01","Bigger than the reference Unit of Measure","1000 TABLETS"
"isf_tosa_product.10m","product.product_uom_categ_unit","1.0","1.0","1.0","Reference Unit of Measure for this category","10M"
"isf_tosa_product.10millilitres","product.product_uom_categ_unit","1.0","1.0","1.0","Reference Unit of Measure for this category","10MILLILITRES"
"isf_tosa_product.10mlx25vials","product.product_uom_categ_unit","25.0","0.04","0.01","Bigger than the reference Unit of Measure","10ml X 25VIALS"
"isf_tosa_product.10p","product.product_uom_categ_unit","1.0","1.0","1.0","Reference Unit of Measure for this category","10P"
"isf_tosa_product.12bottles","product.product_uom_categ_unit","12.0","0.083333333333","0.01","Bigger than the reference Unit of Measure","12 BOTTLES"
"isf_tosa_product.12pieces","product.product_uom_categ_unit","12.0","0.083333333333","0.01","Bigger than the reference Unit of Measure","12 PIECES"
"isf_tosa_product.12suppositories","product.product_uom_categ_unit","12.0","0.083333333333","0.01","Bigger than the reference Unit of Measure","12 SUPPOSITORIES"
"isf_tosa_product.12tubes","product.product_uom_categ_unit","12.0","0.083333333333","0.01","Bigger than the reference Unit of Measure","12 TUBES"
"isf_tosa_product.125grams","product.product_uom_categ_unit","1.0","1.0","1.0","Reference Unit of Measure for this category","125 GRAMS"
"isf_tosa_product.12p","product.product_uom_categ_unit","1.0","1.0","1.0","Reference Unit of Measure for this category","12P"
"isf_tosa_product.15capsules","product.product_uom_categ_unit","15.0","0.066666666666","0.01","Bigger than the reference Unit of Measure","15 CAPSULES"
"isf_tosa_product.15pessaries","product.product_uom_categ_unit","15.0","0.066666666666","0.01","Bigger than the reference Unit of Measure","15 PESSARIES"
"isf_tosa_product.1kg","product.product_uom_categ_unit","1.0","1.0","1.0","Reference Unit of Measure for this category","1KG"
"isf_tosa_product.1lt","product.product_uom_categ_unit","1.0","1.0","1.0","Reference Unit of Measure for this category","1LT"
"isf_tosa_product.2millilitres","product.product_uom_categ_unit","1.0","1.0","1.0","Reference Unit of Measure for this category","2 MILLILITRES"
"isf_tosa_product.2dot5litres","product.product_uom_categ_unit","1.0","1.0","1.0","Reference Unit of Measure for this category","2.5 LITRES"
"isf_tosa_product.20gramstube","product.product_uom_categ_unit","1.0","1.0","1.0","Reference Unit of Measure for this category","20 GRAMS TUBE"
"isf_tosa_product.20litres","product.product_uom_categ_unit","1.0","1.0","1.0","Reference Unit of Measure for this category","20 LITRES"
"isf_tosa_product.20millilitres","product.product_uom_categ_unit","1.0","1.0","1.0","Reference Unit of Measure for this category","20 MILLILITRES"
"isf_tosa_product.20pieces","product.product_uom_categ_unit","20.0","0.05","0.01","Bigger than the reference Unit of Measure","20 PIECES"
"isf_tosa_product.20tablets","product.product_uom_categ_unit","20.0","0.05","0.01","Bigger than the reference Unit of Measure","20 TABLETS"
"isf_tosa_product.20tubes","product.product_uom_categ_unit","20.0","0.05","0.01","Bigger than the reference Unit of Measure","20 TUBES"
"isf_tosa_product.20vials","product.product_uom_categ_unit","20.0","0.05","0.01","Bigger than the reference Unit of Measure","20 VIALS"
"isf_tosa_product.200grams","product.product_uom_categ_unit","1.0","1.0","1.0","Reference Unit of Measure for this category","200 GRAMS"
"isf_tosa_product.200gramsx6","product.product_uom_categ_unit","6.0","0.166666666666","1.0","Reference Unit of Measure for this category","200 GRAMS X 6"
"isf_tosa_product.200pieces","product.product_uom_categ_unit","200.0","0.005","0.01","Bigger than the reference Unit of Measure","200 PIECES"
"isf_tosa_product.200tablets","product.product_uom_categ_unit","200.0","0.005","0.01","Bigger than the reference Unit of Measure","200 TABLETS"
"isf_tosa_product.20m","product.product_uom_categ_unit","1.0","1.0","1.0","Reference Unit of Measure for this category","20M"
"isf_tosa_product.20p","product.product_uom_categ_unit","1.0","1.0","1.0","Reference Unit of Measure for this category","20P"
"isf_tosa_product.24bottles","product.product_uom_categ_unit","24.0","0.041666666666","0.01","Bigger than the reference Unit of Measure","24 BOTTLES"
"isf_tosa_product.24bottlesx100millilitres","product.product_uom_categ_unit","24.0","0.041666666666","0.01","Bigger than the reference Unit of Measure","24 BOTTLES X 100 MILLILITRES"
"isf_tosa_product.24doses","product.product_uom_categ_unit","24.0","0.041666666666","0.01","Bigger than the reference Unit of Measure","24 DOSES"
"isf_tosa_product.24tubes","product.product_uom_categ_unit","24.0","0.041666666666","0.01","Bigger than the reference Unit of Measure","24 TUBES"
"isf_tosa_product.25grams","product.product_uom_categ_unit","1.0","1.0","1.0","Reference Unit of Measure for this category","25 GRAMS"
"isf_tosa_product.25meter","product.product_uom_categ_unit","1.0","1.0","1.0","Reference Unit of Measure for this category","25 METER"
"isf_tosa_product.25mililitres","product.product_uom_categ_unit","1.0","1.0","1.0","Reference Unit of Measure for this category","25 MILILITRES"
"isf_tosa_product.25pieces","product.product_uom_categ_unit","25.0","0.04","0.01","Bigger than the reference Unit of Measure","25 PIECES"
"isf_tosa_product.25strips","product.product_uom_categ_unit","25.0","0.04","0.01","Bigger than the reference Unit of Measure","25 STRIPS"
"isf_tosa_product.25vials","product.product_uom_categ_unit","25.0","0.04","0.01","Bigger than the reference Unit of Measure","25 VIALS"
"isf_tosa_product.25vialsx10milillitres","product.product_uom_categ_unit","25.0","0.04","0.01","Bigger than the reference Unit of Measure","25 VIALS X 10 MILILLITRES"
"isf_tosa_product.250grams","product.product_uom_categ_unit","1.0","1.0","1.0","Reference Unit of Measure for this category","250 GRAMS"
"isf_tosa_product.250millilitres","product.product_uom_categ_unit","1.0","1.0","1.0","Reference Unit of Measure for this category","250 MILLILITRES"
"isf_tosa_product.250pieces","product.product_uom_categ_unit","250.0","0.004","0.01","Bigger than the reference Unit of Measure","250 PIECES"
"isf_tosa_product.250tablets","product.product_uom_categ_unit","25.0","0.04","0.01","Bigger than the reference Unit of Measure","250 TABLETS"
"isf_tosa_product.25g","product.product_uom_categ_unit","1.0","1.0","1.0","Reference Unit of Measure for this category","25G"
"isf_tosa_product.25m","product.product_uom_categ_unit","1.0","1.0","1.0","Reference Unit of Measure for this category","25M"
"isf_tosa_product.28tablets","product.product_uom_categ_unit","28.0","0.035714285714","0.01","Bigger than the reference Unit of Measure","28 TABLETS"
"isf_tosa_product.2ml","product.product_uom_categ_unit","1.0","1.0","1.0","Reference Unit of Measure for this category","2ML"
"isf_tosa_product.30millilitres","product.product_uom_categ_unit","1.0","1.0","1.0","Reference Unit of Measure for this category","30 MILLILITRES"
"isf_tosa_product.30tablets","product.product_uom_categ_unit","30.0","0.033333333333","0.01","Bigger than the reference Unit of Measure","30 TABLETS"
"isf_tosa_product.300grams","product.product_uom_categ_unit","1.0","1.0","1.0","Reference Unit of Measure for this category","300 GRAMS"
"isf_tosa_product.40grams","product.product_uom_categ_unit","1.0","1.0","1.0","Reference Unit of Measure for this category","40 GRAMS"
"isf_tosa_product.40litres","product.product_uom_categ_unit","1.0","1.0","1.0","Reference Unit of Measure for this category","40 LITRES"
"isf_tosa_product.4p","product.product_uom_categ_unit","1.0","1.0","1.0","Reference Unit of Measure for this category","4P"
"isf_tosa_product.5kilograms","product.product_uom_categ_unit","1.0","1.0","1.0","Reference Unit of Measure for this category","5 KILOGRAMS"
"isf_tosa_product.5litres","product.product_uom_categ_unit","1.0","1.0","1.0","Reference Unit of Measure for this category","5 LITRES"
"isf_tosa_product.5mililitres","product.product_uom_categ_unit","1.0","1.0","1.0","Reference Unit of Measure for this category","5 MILILITRES"
"isf_tosa_product.5pieces","product.product_uom_categ_unit","5.0","0.2","1.0","Reference Unit of Measure for this category","5 PIECES"
"isf_tosa_product.5vials","product.product_uom_categ_unit","5.0","0.2","1.0","Reference Unit of Measure for this category","5 VIALS"
"isf_tosa_product.50discs","product.product_uom_categ_unit","50.0","0.02","1.0","Reference Unit of Measure for this category","50 DISCS"
"isf_tosa_product.50grams","product.product_uom_categ_unit","1.0","1.0","1.0","Reference Unit of Measure for this category","50 GRAMS"
"isf_tosa_product.50millilitres","product.product_uom_categ_unit","1.0","1.0","1.0","Reference Unit of Measure for this category","50 MILLILITRES"
"isf_tosa_product.50pairs","product.product_uom_categ_unit","50.0","0.02","1.0","Reference Unit of Measure for this category","50 PAIRS"
"isf_tosa_product.50pieces","product.product_uom_categ_unit","50.0","0.02","1.0","Reference Unit of Measure for this category","50 PIECES"
"isf_tosa_product.50tablets","product.product_uom_categ_unit","50.0","0.02","1.0","Reference Unit of Measure for this category","50 Tablets"
"isf_tosa_product.50tubes","product.product_uom_categ_unit","50.0","0.02","1.0","Reference Unit of Measure for this category","50 TUBES"
"isf_tosa_product.50vials","product.product_uom_categ_unit","50.0","0.02","1.0","Reference Unit of Measure for this category","50 VIALS"
"isf_tosa_product.500grams","product.product_uom_categ_unit","1.0","1.0","1.0","Reference Unit of Measure for this category","500 GRAMS"
"isf_tosa_product.500milillitres","product.product_uom_categ_unit","1.0","1.0","1.0","Reference Unit of Measure for this category","500 MILILLITRES"
"isf_tosa_product.500millilitres","product.product_uom_categ_unit","1.0","1.0","1.0","Reference Unit of Measure for this category","500 MILLILITRES"
"isf_tosa_product.500pieces","product.product_uom_categ_unit","500.0","0.002","0.01","Bigger than the reference Unit of Measure","500 PIECES"
"isf_tosa_product.500tablets","product.product_uom_categ_unit","500.0","0.002","0.01","Bigger than the reference Unit of Measure","500 TABLETS"
"isf_tosa_product.50g","product.product_uom_categ_unit","1.0","1.0","1.0","Reference Unit of Measure for this category","50G"
"isf_tosa_product.50p","product.product_uom_categ_unit","1.0","1.0","1.0","Reference Unit of Measure for this category","50P"
"isf_tosa_product.50t","product.product_uom_categ_unit","1.0","1.0","1.0","Reference Unit of Measure for this category","50T"
"isf_tosa_product.5kg","product.product_uom_categ_unit","1.0","1.0","1.0","Reference Unit of Measure for this category","5KG"
"isf_tosa_product.5litres","product.product_uom_categ_unit","1.0","1.0","1.0","Reference Unit of Measure for this category","5LITRES"
"isf_tosa_product.6bottles","product.product_uom_categ_unit","6.0","0.166666666666","1.0","Reference Unit of Measure for this category","6 BOTTLES"
"isf_tosa_product.6capsules","product.product_uom_categ_unit","6.0","0.166666666666","1.0","Reference Unit of Measure for this category","6 CAPSULES"
"isf_tosa_product.6pessaries","product.product_uom_categ_unit","6.0","0.166666666666","1.0","Reference Unit of Measure for this category","6 PESSARIES"
"isf_tosa_product.8millilitres","product.product_uom_categ_unit","1.0","1.0","1.0","Reference Unit of Measure for this category","8 MILLILITRES"
"isf_tosa_product.each","product.product_uom_categ_unit","1.0","1.0","1.0","Reference Unit of Measure for this category","EACH"
"isf_tosa_product.kit","product.product_uom_categ_unit","1.0","1.0","1.0","Reference Unit of Measure for this category","KIT"
"isf_tosa_product.kitof20tests","product.product_uom_categ_unit","20.0","0.05","0.01","Bigger than the reference Unit of Measure","KIT OF 20 TESTS"
"isf_tosa_product.kitof30tests","product.product_uom_categ_unit","30.0","0.033333333333","0.01","Bigger than the reference Unit of Measure","KIT OF 30 TESTS"
"isf_tosa_product.onebottle","product.product_uom_categ_unit","1.0","1.0","1.0","Reference Unit of Measure for this category","ONE BOTTLE"
"isf_tosa_product.onekilogram","product.product_uom_categ_unit","1.0","1.0","1.0","Reference Unit of Measure for this category","ONE KILOGRAM"
"isf_tosa_product.onekit","product.product_uom_categ_unit","1.0","1.0","1.0","Reference Unit of Measure for this category","ONE KIT"
"isf_tosa_product.onelitre","product.product_uom_categ_unit","1.0","1.0","1.0","Reference Unit of Measure for this category","ONE LITRE"
"isf_tosa_product.onevial","product.product_uom_categ_unit","1.0","1.0","1.0","Reference Unit of Measure for this category","ONE VIAL"
"isf_tosa_product.p25","product.product_uom_categ_unit","1.0","1.0","1.0","Reference Unit of Measure for this category","P25"
"isf_tosa_product.pkt","product.product_uom_categ_unit","1.0","1.0","1.0","Reference Unit of Measure for this category","PKT"
