id,type,"name",parent_id/id,property_stock_journal/id
product_category.expense_products,View,"Products",hr_expense.cat_expense,stock.stock_journal
product_category.expense_products_BABITO,Normal,"BABITO PHARMACY",product_category.expense_products,stock.stock_journal
product_category.expense_products_BIOPROTECT,Normal,"BIOPROTECT",product_category.expense_products,stock.stock_journal
product_category.expense_products_EMMA,Normal,"EMMA MEDICS",product_category.expense_products,stock.stock_journal
product_category.expense_products_GREENZONE,Normal,"GREENZONE PHARMACY",product_category.expense_products,stock.stock_journal
product_category.expense_products_IRINGAHIGHLANDS,Normal,"IRINGA HIGHLANDS PHARMACY",product_category.expense_products,stock.stock_journal
product_category.expense_products_KALENGA,Normal,"KALENGA PHARMACY",product_category.expense_products,stock.stock_journal
product_category.expense_products_KYUSA,Normal,"KYUSA CARE",product_category.expense_products,stock.stock_journal
product_category.expense_products_MIYOMBONY,Normal,"MIYOMBONY PHARMACY",product_category.expense_products,stock.stock_journal
product_category.expense_products_MPERA,Normal,"MPERA HEALTH CARE",product_category.expense_products,stock.stock_journal
product_category.expense_products_ACACIA,Normal,"ACACIA PHARMACY",product_category.expense_products,stock.stock_journal
product_category.expense_products_SALAMA,Normal,"SALAMA PHARMACY",product_category.expense_products,stock.stock_journal
product_category.expense_products_MSELIZABETH,Normal,"M/S  Elizabeth W.Mkane - Iringa (Building Material)",product_category.expense_products,stock.stock_journal
product_category.expense_products_MALENDI,Normal,"Malendi General Merchandise - Iringa (Stationary)",product_category.expense_products,stock.stock_journal
product_category.expense_products_NGOTI,Normal,"Ngoti Enterprises - Iringa (IT Hardware & Services)",product_category.expense_products,stock.stock_journal
product_category.expense_products_ONESMO,Normal,"Onesmo M. Kabonge - Iringa (Building Materials)",product_category.expense_products,stock.stock_journal
product_category.expense_products_RABIS,Normal,"Rabis Investment - Iringa (Printing/Stationary)",product_category.expense_products,stock.stock_journal
product_category.expense_products_MSD,View,"MSD",product_category.expense_products,stock.stock_journal
product_category.B,View,"B - MEDICAL EQUIPMENT AND SUPPLIES",product_category.expense_products_MSD,stock.stock_journal
product_category.B01,Normal,"B01 - Surgical Sutures",product_category.B,stock.stock_journal
product_category.B02,Normal,"B02 - Gloves & Protective Gears",product_category.B,stock.stock_journal
product_category.B03,Normal,"B03 - Syringes, Needles, Cannulas & Administration Sets",product_category.B,stock.stock_journal
product_category.B04,Normal,"B04 - Catheters & Tubes",product_category.B,stock.stock_journal
product_category.B05,Normal,"B05 - Dressing Material",product_category.B,stock.stock_journal
product_category.B06,Normal,"B06 - Hospital Equipment And Furnitures",product_category.B,stock.stock_journal
product_category.B07,Normal,"B07 - Reusable Devices (Hospital Intruments)",product_category.B,stock.stock_journal
product_category.B08,Normal,"B08 - Surgical Instruments & Medical Kits/Sets",product_category.B,stock.stock_journal
product_category.B09,Normal,"B09 - Hospital Linen, Uniforms & Beddings Materials",product_category.B,stock.stock_journal
product_category.B10,Normal,"B10 - Hospital Hollow Wares",product_category.B,stock.stock_journal
product_category.B11,Normal,"B11 - Hospital Registers, Stationeries And Dispensing Envelopes",product_category.B,stock.stock_journal
product_category.B12,Normal,"B12 - Waste Collection Bags (Colostomy, Urine Bags Etc.)",product_category.B,stock.stock_journal
product_category.B13,Normal,"B13 - Patient Management Devices And Other Tools",product_category.B,stock.stock_journal
product_category.C,View,"C - X RAY SUPPLIES AND EQUIPMENT",product_category.expense_products_MSD,stock.stock_journal
product_category.C01,Normal,"C01 - X-Ray Films",product_category.C,stock.stock_journal
product_category.C02,Normal,"C02 - X-Ray Chemicals And Reagents",product_category.C,stock.stock_journal
product_category.C03,Normal,"C03 - Intensifying Screens For X-Ray Film",product_category.C,stock.stock_journal
product_category.C04,Normal,"C04 - X-Ray Film Hangers",product_category.C,stock.stock_journal
product_category.C05,Normal,"C05 - X- Ray Devices And Machines",product_category.C,stock.stock_journal
product_category.D,View,"D - LABORATORY EQIPMENT AND SUPPLIES",product_category.expense_products_MSD,stock.stock_journal
product_category.D01,Normal,"D01 - Specimen Collection, Storage and Transport Items",product_category.D,stock.stock_journal
product_category.D02,Normal,"D02 - Microbiology and Serology Items",product_category.D,stock.stock_journal
product_category.D04,Normal,"D04 - Haematology and Blood Transfusion Items",product_category.D,stock.stock_journal
product_category.D05,Normal,"D05 - Clinical Chemistry / Biochemistry Items",product_category.D,stock.stock_journal
product_category.D06,Normal,"D06 - Parasitology Items",product_category.D,stock.stock_journal
product_category.D07,Normal,"D07 - Histopathology Items",product_category.D,stock.stock_journal
product_category.D08,Normal,"D08 - General Purposes, Laboratory and Disinfectants Items",product_category.D,stock.stock_journal
product_category.saleable_products,View,"Products",product.product_category_1,stock.stock_journal
product_category.saleable_products_BABITO,Normal,"BABITO PHARMACY",product_category.saleable_products,stock.stock_journal
product_category.saleable_products_BIOPROTECT,Normal,"BIOPROTECT",product_category.saleable_products,stock.stock_journal
product_category.saleable_products_EMMA,Normal,"EMMA MEDICS",product_category.saleable_products,stock.stock_journal
product_category.saleable_products_GREENZONE,Normal,"GREENZONE PHARMACY",product_category.saleable_products,stock.stock_journal
product_category.saleable_products_IRINGAHIGHLANDS,Normal,"IRINGA HIGHLANDS PHARMACY",product_category.saleable_products,stock.stock_journal
product_category.saleable_products_KALENGA,Normal,"KALENGA PHARMACY",product_category.saleable_products,stock.stock_journal
product_category.saleable_products_KYUSA,Normal,"KYUSA CARE",product_category.saleable_products,stock.stock_journal
product_category.saleable_products_MIYOMBONY,Normal,"MIYOMBONY PHARMACY",product_category.saleable_products,stock.stock_journal
product_category.saleable_products_MPERA,Normal,"MPERA HEALTH CARE",product_category.saleable_products,stock.stock_journal
product_category.saleable_products_ACACIA,Normal,"ACACIA PHARMACY",product_category.saleable_products,stock.stock_journal
product_category.saleable_products_SALAMA,Normal,"SALAMA PHARMACY",product_category.saleable_products,stock.stock_journal
product_category.saleable_products_MSD,View,"MSD",product_category.saleable_products,stock.stock_journal
product_category.A,View,"A - PHARMACEUTICALS",product_category.saleable_products_MSD,stock.stock_journal
product_category.A01,Normal,"A01 - Amoebicides",product_category.A,stock.stock_journal
product_category.A02,Normal,"A02 - Anaesthetic Local",product_category.A,stock.stock_journal
product_category.A03,Normal,"A03 - Anaesthetics General",product_category.A,stock.stock_journal
product_category.A04,Normal,"A04 - Antihelminthes",product_category.A,stock.stock_journal
product_category.A05,Normal,"A05 - ANTIEPILEPTICS/ANTICONVULSANT",product_category.A,stock.stock_journal
product_category.A06,Normal,"A06 - Anti-Acid Medicines",product_category.A,stock.stock_journal
product_category.A07,Normal,"A07 - Anti-Allergies And Medicines Used Anaphylaxis Shock",product_category.A,stock.stock_journal
product_category.A08,Normal,"A08 - Anti-Angina Medicines",product_category.A,stock.stock_journal
product_category.A09,Normal,"A09 - Anti-Arrhythmic Medicines",product_category.A,stock.stock_journal
product_category.A10,Normal,"A10 - Anti-Asthmatic and Cough Medicine",product_category.A,stock.stock_journal
product_category.A11,Normal,"A11 - Antibiotics",product_category.A,stock.stock_journal
product_category.A12,Normal,"A12 - Anti-Coagulants",product_category.A,stock.stock_journal
product_category.A13,Normal,"A13 - Anti-Diabetics",product_category.A,stock.stock_journal
product_category.A14,Normal,"A14 - Antidotes",product_category.A,stock.stock_journal
product_category.A15,Normal,"A15 - Anti-Fungal",product_category.A,stock.stock_journal
product_category.A16,Normal,"A16 - Anti-Gout M",product_category.A,stock.stock_journal
product_category.A17,Normal,"A17 - Anti-Haemo",product_category.A,stock.stock_journal
product_category.A18,Normal,"A18 - Anti-Hypert",product_category.A,stock.stock_journal
product_category.A19,Normal,"A19 - Antimalaria",product_category.A,stock.stock_journal
product_category.A20,Normal,"A20 - Anti-Neopla",product_category.A,stock.stock_journal
product_category.A21,Normal,"A21 - Anti-Parkinsonism",product_category.A,stock.stock_journal
product_category.A22,Normal,"A22 - Antipruritics",product_category.A,stock.stock_journal
product_category.A23,Normal,"A23 - Anti-pyretics and NSAIDS",product_category.A,stock.stock_journal
product_category.A24,Normal,"A24 - Anti-Schistosomals, filarials, Leshmania, Trypanosoma",product_category.A,stock.stock_journal
product_category.A25,Normal,"A25 - Antiseptics & Disinfectant",product_category.A,stock.stock_journal
product_category.A26,Normal,"A26 - Drugs affecting intestinal secretion and antispasmodics",product_category.A,stock.stock_journal
product_category.A27,Normal,"A27 - Diuretics Medicines",product_category.A,stock.stock_journal
product_category.A28,Normal,"A28 - Iron Deficiency Anaemias Medicines",product_category.A,stock.stock_journal
product_category.A30,Normal,"A30 - Liquid, Correcting Electrolytes and Acid/Base Disturbances",product_category.A,stock.stock_journal
product_category.A31,Normal,"A31 - OPHTHAMOLOGICAL PREPARATIONS",product_category.A,stock.stock_journal
product_category.A32,Normal,"A32 - Muscle Relaxants0, Cholineserase Inhibitors and Anticholine",product_category.A,stock.stock_journal
product_category.A33,Normal,"A33 - Narcotic & Antagonists",product_category.A,stock.stock_journal
product_category.A34,Normal,"A34 - Oxytocics and Related Medicines",product_category.A,stock.stock_journal
product_category.A35,Normal,"A35 - Psychotherapeutic Agents",product_category.A,stock.stock_journal
product_category.A36,Normal,"A36 - Sera And Immunoglobulins",product_category.A,stock.stock_journal
product_category.A37,Normal,"A37 - Steroidal Anti-Inflamatory Medicines",product_category.A,stock.stock_journal
product_category.A38,Normal,"A38 - Cathartics",product_category.A,stock.stock_journal
product_category.A39,Normal,"A39 - Thyroid & Antithyroid Medicines",product_category.A,stock.stock_journal
product_category.A40,Normal,"A40 - Vaccines",product_category.A,stock.stock_journal
product_category.A41,Normal,"A41 - Vitamins & Minerals",product_category.A,stock.stock_journal
product_category.A42,Normal,"A42 - Medicines used in Diarrhoea",product_category.A,stock.stock_journal
product_category.services,Normal,"Services",product.product_category_1,stock.stock_journal
product.product_category_2,Normal,"DENTAL DEPARTMENT",product_category.services,stock.stock_journal
product_category.consultation,View,"CONSULTATIONS",product_category.services,stock.stock_journal
product.product_category_3,Normal,"WAGONJWA WA NJE (Out Patient)",product_category.consultation,stock.stock_journal
product.product_category_4,Normal,"WODI YA KAWAIDA (In Patient)",product_category.consultation,stock.stock_journal
product.product_category_5,Normal,"WODI YA PRIVATE (Private Ward)",product_category.consultation,stock.stock_journal
product.product_category_6,Normal,"WODI YA WATOTO (Pediatric Ward)",product_category.consultation,stock.stock_journal
product_category.laboratory,View,"LABORATORY",product_category.services,stock.stock_journal
product.product_category_7,Normal,"BIOCHEMISTRY",product_category.laboratory,stock.stock_journal
product.product_category_8,Normal,"HAEMATOLOGY",product_category.laboratory,stock.stock_journal
product.product_category_9,Normal,"Microbiology / Serology /Parasitology",product_category.laboratory,stock.stock_journal
product.product_category_10,Normal,"SPECIAL EXAMINATION",product_category.services,stock.stock_journal
product_category.surgery,View,"SURGERY",product_category.services,stock.stock_journal
product.product_category_11,Normal,"MAJOR SURGERY",product_category.surgery,stock.stock_journal
product.product_category_12,Normal,"MINOR SURGERY",product_category.surgery,stock.stock_journal
product.product_category_13,Normal,"X-RAY & ULTRASOUND",product_category.services,stock.stock_journal
